{
   "lots":[
      {
         "section":"Торги ГК Газпром",
         "title":"Запрос предложений № 31705379496",
         "description":"Поставка контрольно-измерительных приборов и автоматики для нужд ооо «газпром трансгаз краснодар» (№ 0001/17/2.2/0040523/тгкраснодар /зп/гос/э/31.07.2017)",
         "price":"19 102 632",
         "accept_date":"05-09-2017 12:00 +03:00",
         "url":"/procedure/tender/gaz/94461/",
         "okpd_codes":"28.9928.29.11.11026.70.23.19026.5",
         "inn":"7736050003",
         "company":"ПАО \"Газпром\""
      },
      {
         "section":"Торги ГК Газпром",
         "title":"Запрос предложений № 31705407375",
         "description":"Выполнение работ по капитальному ремонту агрегатов и компонентов вертолёта ми-8 для нужд томского филиала\nооо авиапредприятие «газпром авиа»\n",
         "price":"4 608 704",
         "accept_date":"07-09-2017 12:00 +03:00",
         "url":"/procedure/tender/gaz/94990/",
         "okpd_codes":"30.30.31",
         "inn":"7736046504",
         "company":"ООО Авиапредприятие «Газпром авиа»"
      },
      {
         "section":"Торги ГК Газпром",
         "title":"Запрос предложений № 31705352791",
         "description":"Консервация скважины 138 бухаровского месторождения свердловской области",
         "price":"14 396 827",
         "accept_date":"18-08-2017 09:00 +03:00",
         "url":"/procedure/tender/gaz/93884/",
         "okpd_codes":"09.10.11.110",
         "inn":"8905026850",
         "company":"ООО «Газпром добыча Ноябрьск»"
      },
      {
         "section":"Торги ГК Газпром",
         "title":"Запрос предложений № 31705379509",
         "description":"Поставка запасных частей, комплектующих и материалов на дорожно-строительную технику для нужд пао «газпром спецгазавтотранс» (для субъектов малого и среднего предпринимательства) (№ 0001/17/2.2/0025717/спецгатранс/зп/гос/э/31.07.2017)",
         "price":"47 699 027",
         "accept_date":"05-09-2017 12:00 +03:00",
         "url":"/procedure/tender/gaz/94495/",
         "okpd_codes":"45.31.12.000",
         "inn":"7736050003",
         "company":"ПАО \"Газпром\""
      },
      {
         "section":"Торги ГК Газпром",
         "title":"Запрос предложений № 31704963448",
         "description":"Оказание медицинских услуг по проведению обязательных периодических и предварительных медицинских осмотров для нужд ооо \"тюменниигипрогаз\" 2017-2019 гг.",
         "price":"15 642 720",
         "accept_date":"05-09-2017 13:00 +03:00",
         "url":"/procedure/tender/gaz/86405/",
         "okpd_codes":"86.186.1",
         "inn":"7203095297",
         "company":"ООО \"ТюменНИИгипрогаз\""
      },
      {
         "section":"Торги ГК Газпром",
         "title":"Запрос предложений № 31705402897",
         "description":"Оказание услуг по обеспечению пассажиров и экипажей воздушных судов бортовым питанием в а/п г. ямбург для нужд ооо авиапредприятие «газпром авиа»",
         "price":"25 000 000",
         "accept_date":"31-08-2017 12:00 +03:00",
         "url":"/procedure/tender/gaz/94888/",
         "okpd_codes":"56.29.11",
         "inn":"7736046504",
         "company":"ООО Авиапредприятие «Газпром авиа»"
      },
      {
         "section":"Торги ГК Газпром",
         "title":"Запрос предложений № 31705434090",
         "description":"Поставка запасных частей и комплектующих кипиа для нужд ооо «газпром трансгаз чайковский»\n(для субъектов малого и среднего предпринимательства)\n(№ 0001/17/2.2/0053615/тгчайковск/зп/гос/э/17.08.2017)",
         "price":"3 560 200",
         "accept_date":"05-09-2017 12:00 +03:00",
         "url":"/procedure/tender/gaz/95553/",
         "okpd_codes":"27.90.12.12026.52.14.00026.51.70.19026.51.66.12026.51.53.11026.51.52.13026.51.52.11026.51.51.14026.51.51.11026.51.43.12026.51.43.117",
         "inn":"7736050003",
         "company":"ПАО \"Газпром\""
      },
      {
         "section":"Торги ГК Газпром",
         "title":"Запрос предложений № 31705401561",
         "description":"Разработка и реализация мероприятий по сохранению и восстановлению популяции сахалинского тайменя в районе эксплуатации киринского гкм для нужд ооо \"газпром добыча шельф южно-сахалинск\"",
         "price":"3 192 017",
         "accept_date":"31-08-2017 08:00 +03:00",
         "url":"/procedure/tender/gaz/94861/",
         "okpd_codes":"74.90.1",
         "inn":"7725646034",
         "company":"ООО \"Газпром добыча шельф Южно-Сахалинск\""
      },
      {
         "section":"Торги ГК Газпром",
         "title":"Запрос предложений № 31705447282",
         "description":"Поставка запчастей кипиа для нужд ооо «газпром трансгаз томск»\n(№ 0001/17/2.2/0053644/тгтомск/зп/гос/э/22.08.2017)",
         "price":"18 730 332",
         "accept_date":"06-09-2017 12:00 +03:00",
         "url":"/procedure/tender/gaz/95880/",
         "okpd_codes":"26.51.85.120",
         "inn":"7736050003",
         "company":"ПАО \"Газпром\""
      },
      {
         "section":"Торги ГК Газпром",
         "title":"Запрос предложений № 31705368465",
         "description":"Выполнение работ кадастровых и иных работ, необходимых для оформления прав пао «газпром» на земельные участки под размещение объектов пао «газпром» (3 лота)",
         "price":"966 936",
         "accept_date":"01-09-2017 10:00 +03:00",
         "url":"/procedure/tender/gaz/94157/",
         "okpd_codes":"71.12.34.11071.12.34.11071.12.34.110",
         "inn":"7728262893",
         "company":"ООО \"Газпромтранс\""
      },
      {
         "section":"Торги ГК Газпром",
         "title":"Запрос предложений № 31705358616",
         "description":"Выполнение строительно-монтажных работ по объекту: техперевооружение грп по ул. комсомольская в н. п. сала-кушкет балтасинского района рт",
         "price":"863 236",
         "accept_date":"21-08-2017 10:00 +03:00",
         "url":"/procedure/tender/gaz/93991/",
         "okpd_codes":"42.21.22.130",
         "inn":"1600000036",
         "company":"ООО «Газпром трансгаз Казань»"
      },
      {
         "section":"Торги ГК Газпром",
         "title":"Запрос предложений № 31705358284",
         "description":"Выполнение строительно-монтажных работ по объекту: техническое перевооружение грп в н.п.мещеряково буинского района рт.",
         "price":"2 974 965",
         "accept_date":"16-08-2017 10:00 +03:00",
         "url":"/procedure/tender/gaz/93983/",
         "okpd_codes":"42.21.22.130",
         "inn":"1600000036",
         "company":"ООО «Газпром трансгаз Казань»"
      },
      {
         "section":"Торги ГК Газпром",
         "title":"Запрос предложений № 31705358887",
         "description":"Выполнение строительно-монтажных работ по объекту: закольцовка газопровода по ул.ключевая, 5 -ул.центральная,1 в н.п.красный ключ г.нижнекамск рт",
         "price":"1 410 330",
         "accept_date":"16-08-2017 10:00 +03:00",
         "url":"/procedure/tender/gaz/93993/",
         "okpd_codes":"42.21.22.130",
         "inn":"1600000036",
         "company":"ООО «Газпром трансгаз Казань»"
      },
      {
         "section":"Торги ГК Газпром",
         "title":"Запрос предложений № 31705379566",
         "description":"Паспортизация лч мг",
         "price":"561 848",
         "accept_date":"14-08-2017 10:00 +03:00",
         "url":"/procedure/tender/gaz/94439/",
         "okpd_codes":"82.19",
         "inn":"1600000036",
         "company":"ООО «Газпром трансгаз Казань»"
      },
      {
         "section":"Торги ГК Газпром",
         "title":"Запрос предложений № 31705358292",
         "description":"Выполнение строительно-монтажных работ по объекту: перекладка газопровода в н.п. ст.иванаево чистопольского района рт",
         "price":"622 626",
         "accept_date":"16-08-2017 10:00 +03:00",
         "url":"/procedure/tender/gaz/93987/",
         "okpd_codes":"42.21.22.130",
         "inn":"1600000036",
         "company":"ООО «Газпром трансгаз Казань»"
      }
   ],
   "pagination":{
      "prevPage":null,
      "nextPage":"/procedures/page/2/?procedure%5Bcategory%5D=actual"
   }
}